100
101
110
121
122
123
124
125
126
214
215
216
217
232
235
240
244
247
301
302
303
304
305
306
307
308
309
310
312
313
314
315
316
317
318
319
320
321
322
324
327
328
329
331
333
334
335
336
337
338
340
341
342
343
344
345
346
347
348
349
350
351
352
354
355
356
359
360
361
362
363
364
365
366
367
368
369
370
372
373
374
375
377
378
379
380
381
382
383
384
385
386
388
389
390
391
392
393
394
395
396
397
400
401
404
405
407
408
41
410
411
412
413
414
415
416
417
418
419
421
422
423
424
425
427
429
433
438
439
443
444
445
447
448
449
450
451
452
453
456
458
459
460
461
465
466
467
468
469
470
471
472
474
477
478
479
480
489
490
493
494
495
496
497
499
502
503
504
505
506
507
510
511
512
513
514
515
516
517
521
522
523
524
525
526
527
528
529
530
531
532
536
538
539
540
541
543
548
549
550
553
554
559
560
562
566
567
568
569
570
571
574
575
576
577
578
579
580
581
582
583
585
586
587
590
591
606
610
611
612
619
625
626
628
630
631
632
633
634
635
636
637
638
639
640
641
642
643
644
645
646
647
649
65
650
652
653
654
656
657
659
660
664
665
667
668
669
671
672
673
678
681
682
683
702
703
704
706
707
709
710
717
718
719
720
728
729
730
731
732
733
734
735
736
739
74
740
747
748
75
750
751
752
753
754
759
771
772
773
774
775
776
777
780
781
785
787
788
792
797
798
799
800
804
805
975
Alpha
Asg
Beta
Chi
Delta
Edh
Eta
Iota
Kappa
Lambda
Oe
Omicron
Pi
Psi
Rho
Tau
Th
Theta
Upsilon
Xi
Ygh
Zeta
Zh
acu
ang
ante
asg
asper
ayin
b1
b2
b3
bbar
breve
cdil
chi
circ
circa
circbl
dag
dbar
ddd
dotab
dotbl
edh
fata
fatpara
frown
gamma
grave
hacek
hbar
hgz
hook
ia
ib
id
ie
ig
ih
ii
ik
index
iota
iq
isub
iz
kappa
lambda
lbar
lenis
mac
ng
nu
obar
oe
omega
omicron
page
para
pmil
ppp
psi
query
rdot
reva
revr
revsc
rho
schwa
sdd
sh
sylab
th
thbar
tilde
trli
uml
undl
upsilon
vb
xi
ygh
zeta
zh
